{
    "page":1,
    "per_page":15,
    "photos":[
       {
          "id":19098359,
          "width":4000,
          "height":6000,
          "url":"https://www.pexels.com/photo/a-woman-in-a-leather-jacket-and-sunglasses-19098359/",
          "photographer":"Thomas H.",
          "photographer_url":"https://www.pexels.com/@thomas-h-770164381",
          "photographer_id":770164381,
          "avg_color":"#785827",
          "src":{
             "original":"https://images.pexels.com/photos/19098359/pexels-photo-19098359.jpeg",
             "large2x":"https://images.pexels.com/photos/19098359/pexels-photo-19098359.jpeg?auto=compress\u0026cs=tinysrgb\u0026dpr=2\u0026h=650\u0026w=940",
             "large":"https://images.pexels.com/photos/19098359/pexels-photo-19098359.jpeg?auto=compress\u0026cs=tinysrgb\u0026h=650\u0026w=940",
             "medium":"https://images.pexels.com/photos/19098359/pexels-photo-19098359.jpeg?auto=compress\u0026cs=tinysrgb\u0026h=350",
             "small":"https://images.pexels.com/photos/19098359/pexels-photo-19098359.jpeg?auto=compress\u0026cs=tinysrgb\u0026h=130",
             "portrait":"https://images.pexels.com/photos/19098359/pexels-photo-19098359.jpeg?auto=compress\u0026cs=tinysrgb\u0026fit=crop\u0026h=1200\u0026w=800",
             "landscape":"https://images.pexels.com/photos/19098359/pexels-photo-19098359.jpeg?auto=compress\u0026cs=tinysrgb\u0026fit=crop\u0026h=627\u0026w=1200",
             "tiny":"https://images.pexels.com/photos/19098359/pexels-photo-19098359.jpeg?auto=compress\u0026cs=tinysrgb\u0026dpr=1\u0026fit=crop\u0026h=200\u0026w=280"
          },
          "liked":false,
          "alt":""
       },
       {
          "id":19161138,
          "width":6240,
          "height":4160,
          "url":"https://www.pexels.com/photo/lonely-chapel-19161138/",
          "photographer":"Caleb Owens",
          "photographer_url":"https://www.pexels.com/@calebowensphoto",
          "photographer_id":803094799,
          "avg_color":"#729DBD",
          "src":{
             "original":"https://images.pexels.com/photos/19161138/pexels-photo-19161138.jpeg",
             "large2x":"https://images.pexels.com/photos/19161138/pexels-photo-19161138.jpeg?auto=compress\u0026cs=tinysrgb\u0026dpr=2\u0026h=650\u0026w=940",
             "large":"https://images.pexels.com/photos/19161138/pexels-photo-19161138.jpeg?auto=compress\u0026cs=tinysrgb\u0026h=650\u0026w=940",
             "medium":"https://images.pexels.com/photos/19161138/pexels-photo-19161138.jpeg?auto=compress\u0026cs=tinysrgb\u0026h=350",
             "small":"https://images.pexels.com/photos/19161138/pexels-photo-19161138.jpeg?auto=compress\u0026cs=tinysrgb\u0026h=130",
             "portrait":"https://images.pexels.com/photos/19161138/pexels-photo-19161138.jpeg?auto=compress\u0026cs=tinysrgb\u0026fit=crop\u0026h=1200\u0026w=800",
             "landscape":"https://images.pexels.com/photos/19161138/pexels-photo-19161138.jpeg?auto=compress\u0026cs=tinysrgb\u0026fit=crop\u0026h=627\u0026w=1200",
             "tiny":"https://images.pexels.com/photos/19161138/pexels-photo-19161138.jpeg?auto=compress\u0026cs=tinysrgb\u0026dpr=1\u0026fit=crop\u0026h=200\u0026w=280"
          },
          "liked":false,
          "alt":"Lonely Chapel "
       },
       {
          "id":19161535,
          "width":5488,
          "height":3154,
          "url":"https://www.pexels.com/photo/a-person-standing-on-top-of-a-mountain-looking-at-the-snow-covered-mountains-19161535/",
          "photographer":"Niklas Jeromin",
          "photographer_url":"https://www.pexels.com/@njeromin",
          "photographer_id":1766970,
          "avg_color":"#99A3AF",
          "src":{
             "original":"https://images.pexels.com/photos/19161535/pexels-photo-19161535.jpeg",
             "large2x":"https://images.pexels.com/photos/19161535/pexels-photo-19161535.jpeg?auto=compress\u0026cs=tinysrgb\u0026dpr=2\u0026h=650\u0026w=940",
             "large":"https://images.pexels.com/photos/19161535/pexels-photo-19161535.jpeg?auto=compress\u0026cs=tinysrgb\u0026h=650\u0026w=940",
             "medium":"https://images.pexels.com/photos/19161535/pexels-photo-19161535.jpeg?auto=compress\u0026cs=tinysrgb\u0026h=350",
             "small":"https://images.pexels.com/photos/19161535/pexels-photo-19161535.jpeg?auto=compress\u0026cs=tinysrgb\u0026h=130",
             "portrait":"https://images.pexels.com/photos/19161535/pexels-photo-19161535.jpeg?auto=compress\u0026cs=tinysrgb\u0026fit=crop\u0026h=1200\u0026w=800",
             "landscape":"https://images.pexels.com/photos/19161535/pexels-photo-19161535.jpeg?auto=compress\u0026cs=tinysrgb\u0026fit=crop\u0026h=627\u0026w=1200",
             "tiny":"https://images.pexels.com/photos/19161535/pexels-photo-19161535.jpeg?auto=compress\u0026cs=tinysrgb\u0026dpr=1\u0026fit=crop\u0026h=200\u0026w=280"
          },
          "liked":false,
          "alt":""
       },
       {
          "id":19152520,
          "width":4000,
          "height":6000,
          "url":"https://www.pexels.com/photo/a-corn-stalk-with-a-yellow-ear-on-it-19152520/",
          "photographer":"Володимир Олейніков",
          "photographer_url":"https://www.pexels.com/@683743993",
          "photographer_id":683743993,
          "avg_color":"#6C5938",
          "src":{
             "original":"https://images.pexels.com/photos/19152520/pexels-photo-19152520.jpeg",
             "large2x":"https://images.pexels.com/photos/19152520/pexels-photo-19152520.jpeg?auto=compress\u0026cs=tinysrgb\u0026dpr=2\u0026h=650\u0026w=940",
             "large":"https://images.pexels.com/photos/19152520/pexels-photo-19152520.jpeg?auto=compress\u0026cs=tinysrgb\u0026h=650\u0026w=940",
             "medium":"https://images.pexels.com/photos/19152520/pexels-photo-19152520.jpeg?auto=compress\u0026cs=tinysrgb\u0026h=350",
             "small":"https://images.pexels.com/photos/19152520/pexels-photo-19152520.jpeg?auto=compress\u0026cs=tinysrgb\u0026h=130",
             "portrait":"https://images.pexels.com/photos/19152520/pexels-photo-19152520.jpeg?auto=compress\u0026cs=tinysrgb\u0026fit=crop\u0026h=1200\u0026w=800",
             "landscape":"https://images.pexels.com/photos/19152520/pexels-photo-19152520.jpeg?auto=compress\u0026cs=tinysrgb\u0026fit=crop\u0026h=627\u0026w=1200",
             "tiny":"https://images.pexels.com/photos/19152520/pexels-photo-19152520.jpeg?auto=compress\u0026cs=tinysrgb\u0026dpr=1\u0026fit=crop\u0026h=200\u0026w=280"
          },
          "liked":false,
          "alt":"A corn stalk with a yellow ear on it"
       },
       {
          "id":19152941,
          "width":3840,
          "height":5760,
          "url":"https://www.pexels.com/photo/sonbahar-yaprak-19152941/",
          "photographer":"Turuncu Sakal",
          "photographer_url":"https://www.pexels.com/@turuncu-sakal-523826045",
          "photographer_id":523826045,
          "avg_color":"#A98F80",
          "src":{
             "original":"https://images.pexels.com/photos/19152941/pexels-photo-19152941.jpeg",
             "large2x":"https://images.pexels.com/photos/19152941/pexels-photo-19152941.jpeg?auto=compress\u0026cs=tinysrgb\u0026dpr=2\u0026h=650\u0026w=940",
             "large":"https://images.pexels.com/photos/19152941/pexels-photo-19152941.jpeg?auto=compress\u0026cs=tinysrgb\u0026h=650\u0026w=940",
             "medium":"https://images.pexels.com/photos/19152941/pexels-photo-19152941.jpeg?auto=compress\u0026cs=tinysrgb\u0026h=350",
             "small":"https://images.pexels.com/photos/19152941/pexels-photo-19152941.jpeg?auto=compress\u0026cs=tinysrgb\u0026h=130",
             "portrait":"https://images.pexels.com/photos/19152941/pexels-photo-19152941.jpeg?auto=compress\u0026cs=tinysrgb\u0026fit=crop\u0026h=1200\u0026w=800",
             "landscape":"https://images.pexels.com/photos/19152941/pexels-photo-19152941.jpeg?auto=compress\u0026cs=tinysrgb\u0026fit=crop\u0026h=627\u0026w=1200",
             "tiny":"https://images.pexels.com/photos/19152941/pexels-photo-19152941.jpeg?auto=compress\u0026cs=tinysrgb\u0026dpr=1\u0026fit=crop\u0026h=200\u0026w=280"
          },
          "liked":false,
          "alt":"Sonbahar yaprak"
       },
       {
          "id":19150538,
          "width":3024,
          "height":4032,
          "url":"https://www.pexels.com/photo/spa-jacuzzi-hot-tub-19150538/",
          "photographer":"Kristin Li",
          "photographer_url":"https://www.pexels.com/@krisstastic",
          "photographer_id":799946570,
          "avg_color":"#9FB6BC",
          "src":{
             "original":"https://images.pexels.com/photos/19150538/pexels-photo-19150538.jpeg",
             "large2x":"https://images.pexels.com/photos/19150538/pexels-photo-19150538.jpeg?auto=compress\u0026cs=tinysrgb\u0026dpr=2\u0026h=650\u0026w=940",
             "large":"https://images.pexels.com/photos/19150538/pexels-photo-19150538.jpeg?auto=compress\u0026cs=tinysrgb\u0026h=650\u0026w=940",
             "medium":"https://images.pexels.com/photos/19150538/pexels-photo-19150538.jpeg?auto=compress\u0026cs=tinysrgb\u0026h=350",
             "small":"https://images.pexels.com/photos/19150538/pexels-photo-19150538.jpeg?auto=compress\u0026cs=tinysrgb\u0026h=130",
             "portrait":"https://images.pexels.com/photos/19150538/pexels-photo-19150538.jpeg?auto=compress\u0026cs=tinysrgb\u0026fit=crop\u0026h=1200\u0026w=800",
             "landscape":"https://images.pexels.com/photos/19150538/pexels-photo-19150538.jpeg?auto=compress\u0026cs=tinysrgb\u0026fit=crop\u0026h=627\u0026w=1200",
             "tiny":"https://images.pexels.com/photos/19150538/pexels-photo-19150538.jpeg?auto=compress\u0026cs=tinysrgb\u0026dpr=1\u0026fit=crop\u0026h=200\u0026w=280"
          },
          "liked":false,
          "alt":"Free stock photo of hot tub, jacuzzi, spa"
       },
       {
          "id":19150817,
          "width":4000,
          "height":6000,
          "url":"https://www.pexels.com/photo/young-men-in-chinese-condominium-19150817/",
          "photographer":"Phong Vo",
          "photographer_url":"https://www.pexels.com/@phong-vo-458121026",
          "photographer_id":458121026,
          "avg_color":"#707571",
          "src":{
             "original":"https://images.pexels.com/photos/19150817/pexels-photo-19150817.jpeg",
             "large2x":"https://images.pexels.com/photos/19150817/pexels-photo-19150817.jpeg?auto=compress\u0026cs=tinysrgb\u0026dpr=2\u0026h=650\u0026w=940",
             "large":"https://images.pexels.com/photos/19150817/pexels-photo-19150817.jpeg?auto=compress\u0026cs=tinysrgb\u0026h=650\u0026w=940",
             "medium":"https://images.pexels.com/photos/19150817/pexels-photo-19150817.jpeg?auto=compress\u0026cs=tinysrgb\u0026h=350",
             "small":"https://images.pexels.com/photos/19150817/pexels-photo-19150817.jpeg?auto=compress\u0026cs=tinysrgb\u0026h=130",
             "portrait":"https://images.pexels.com/photos/19150817/pexels-photo-19150817.jpeg?auto=compress\u0026cs=tinysrgb\u0026fit=crop\u0026h=1200\u0026w=800",
             "landscape":"https://images.pexels.com/photos/19150817/pexels-photo-19150817.jpeg?auto=compress\u0026cs=tinysrgb\u0026fit=crop\u0026h=627\u0026w=1200",
             "tiny":"https://images.pexels.com/photos/19150817/pexels-photo-19150817.jpeg?auto=compress\u0026cs=tinysrgb\u0026dpr=1\u0026fit=crop\u0026h=200\u0026w=280"
          },
          "liked":false,
          "alt":"Young men in Chinese Condominium"
       },
       {
          "id":19135990,
          "width":4000,
          "height":6000,
          "url":"https://www.pexels.com/photo/a-deer-standing-in-the-woods-with-its-head-turned-19135990/",
          "photographer":"Carolin Wenske",
          "photographer_url":"https://www.pexels.com/@carolin-wenske-762365559",
          "photographer_id":762365559,
          "avg_color":"#312620",
          "src":{
             "original":"https://images.pexels.com/photos/19135990/pexels-photo-19135990.jpeg",
             "large2x":"https://images.pexels.com/photos/19135990/pexels-photo-19135990.jpeg?auto=compress\u0026cs=tinysrgb\u0026dpr=2\u0026h=650\u0026w=940",
             "large":"https://images.pexels.com/photos/19135990/pexels-photo-19135990.jpeg?auto=compress\u0026cs=tinysrgb\u0026h=650\u0026w=940",
             "medium":"https://images.pexels.com/photos/19135990/pexels-photo-19135990.jpeg?auto=compress\u0026cs=tinysrgb\u0026h=350",
             "small":"https://images.pexels.com/photos/19135990/pexels-photo-19135990.jpeg?auto=compress\u0026cs=tinysrgb\u0026h=130",
             "portrait":"https://images.pexels.com/photos/19135990/pexels-photo-19135990.jpeg?auto=compress\u0026cs=tinysrgb\u0026fit=crop\u0026h=1200\u0026w=800",
             "landscape":"https://images.pexels.com/photos/19135990/pexels-photo-19135990.jpeg?auto=compress\u0026cs=tinysrgb\u0026fit=crop\u0026h=627\u0026w=1200",
             "tiny":"https://images.pexels.com/photos/19135990/pexels-photo-19135990.jpeg?auto=compress\u0026cs=tinysrgb\u0026dpr=1\u0026fit=crop\u0026h=200\u0026w=280"
          },
          "liked":false,
          "alt":""
       },
       {
          "id":19132818,
          "width":4160,
          "height":6240,
          "url":"https://www.pexels.com/photo/a-living-room-with-a-yellow-couch-and-a-lamp-19132818/",
          "photographer":"Sueda Dilli",
          "photographer_url":"https://www.pexels.com/@sueda-dilli-143459271",
          "photographer_id":143459271,
          "avg_color":"#3F2B12",
          "src":{
             "original":"https://images.pexels.com/photos/19132818/pexels-photo-19132818.jpeg",
             "large2x":"https://images.pexels.com/photos/19132818/pexels-photo-19132818.jpeg?auto=compress\u0026cs=tinysrgb\u0026dpr=2\u0026h=650\u0026w=940",
             "large":"https://images.pexels.com/photos/19132818/pexels-photo-19132818.jpeg?auto=compress\u0026cs=tinysrgb\u0026h=650\u0026w=940",
             "medium":"https://images.pexels.com/photos/19132818/pexels-photo-19132818.jpeg?auto=compress\u0026cs=tinysrgb\u0026h=350",
             "small":"https://images.pexels.com/photos/19132818/pexels-photo-19132818.jpeg?auto=compress\u0026cs=tinysrgb\u0026h=130",
             "portrait":"https://images.pexels.com/photos/19132818/pexels-photo-19132818.jpeg?auto=compress\u0026cs=tinysrgb\u0026fit=crop\u0026h=1200\u0026w=800",
             "landscape":"https://images.pexels.com/photos/19132818/pexels-photo-19132818.jpeg?auto=compress\u0026cs=tinysrgb\u0026fit=crop\u0026h=627\u0026w=1200",
             "tiny":"https://images.pexels.com/photos/19132818/pexels-photo-19132818.jpeg?auto=compress\u0026cs=tinysrgb\u0026dpr=1\u0026fit=crop\u0026h=200\u0026w=280"
          },
          "liked":false,
          "alt":""
       },
       {
          "id":19138633,
          "width":4092,
          "height":6138,
          "url":"https://www.pexels.com/photo/ritratto-ragazza-19138633/",
          "photographer":"Giona Mason",
          "photographer_url":"https://www.pexels.com/@giona-mason-1751396",
          "photographer_id":1751396,
          "avg_color":"#918F94",
          "src":{
             "original":"https://images.pexels.com/photos/19138633/pexels-photo-19138633.jpeg",
             "large2x":"https://images.pexels.com/photos/19138633/pexels-photo-19138633.jpeg?auto=compress\u0026cs=tinysrgb\u0026dpr=2\u0026h=650\u0026w=940",
             "large":"https://images.pexels.com/photos/19138633/pexels-photo-19138633.jpeg?auto=compress\u0026cs=tinysrgb\u0026h=650\u0026w=940",
             "medium":"https://images.pexels.com/photos/19138633/pexels-photo-19138633.jpeg?auto=compress\u0026cs=tinysrgb\u0026h=350",
             "small":"https://images.pexels.com/photos/19138633/pexels-photo-19138633.jpeg?auto=compress\u0026cs=tinysrgb\u0026h=130",
             "portrait":"https://images.pexels.com/photos/19138633/pexels-photo-19138633.jpeg?auto=compress\u0026cs=tinysrgb\u0026fit=crop\u0026h=1200\u0026w=800",
             "landscape":"https://images.pexels.com/photos/19138633/pexels-photo-19138633.jpeg?auto=compress\u0026cs=tinysrgb\u0026fit=crop\u0026h=627\u0026w=1200",
             "tiny":"https://images.pexels.com/photos/19138633/pexels-photo-19138633.jpeg?auto=compress\u0026cs=tinysrgb\u0026dpr=1\u0026fit=crop\u0026h=200\u0026w=280"
          },
          "liked":false,
          "alt":"ritratto ragazza"
       },
       {
          "id":19134296,
          "width":3024,
          "height":4032,
          "url":"https://www.pexels.com/photo/19134296/",
          "photographer":"油 菜",
          "photographer_url":"https://www.pexels.com/@782836676",
          "photographer_id":782836676,
          "avg_color":"#CCAF69",
          "src":{
             "original":"https://images.pexels.com/photos/19134296/pexels-photo-19134296.jpeg",
             "large2x":"https://images.pexels.com/photos/19134296/pexels-photo-19134296.jpeg?auto=compress\u0026cs=tinysrgb\u0026dpr=2\u0026h=650\u0026w=940",
             "large":"https://images.pexels.com/photos/19134296/pexels-photo-19134296.jpeg?auto=compress\u0026cs=tinysrgb\u0026h=650\u0026w=940",
             "medium":"https://images.pexels.com/photos/19134296/pexels-photo-19134296.jpeg?auto=compress\u0026cs=tinysrgb\u0026h=350",
             "small":"https://images.pexels.com/photos/19134296/pexels-photo-19134296.jpeg?auto=compress\u0026cs=tinysrgb\u0026h=130",
             "portrait":"https://images.pexels.com/photos/19134296/pexels-photo-19134296.jpeg?auto=compress\u0026cs=tinysrgb\u0026fit=crop\u0026h=1200\u0026w=800",
             "landscape":"https://images.pexels.com/photos/19134296/pexels-photo-19134296.jpeg?auto=compress\u0026cs=tinysrgb\u0026fit=crop\u0026h=627\u0026w=1200",
             "tiny":"https://images.pexels.com/photos/19134296/pexels-photo-19134296.jpeg?auto=compress\u0026cs=tinysrgb\u0026dpr=1\u0026fit=crop\u0026h=200\u0026w=280"
          },
          "liked":false,
          "alt":"墙壁"
       },
       {
          "id":19130034,
          "width":3648,
          "height":5472,
          "url":"https://www.pexels.com/photo/black-and-white-photograph-of-sand-dunes-19130034/",
          "photographer":"Jonathan Borba",
          "photographer_url":"https://www.pexels.com/@jonathanborba",
          "photographer_id":1491594,
          "avg_color":"#5E5E5E",
          "src":{
             "original":"https://images.pexels.com/photos/19130034/pexels-photo-19130034.jpeg",
             "large2x":"https://images.pexels.com/photos/19130034/pexels-photo-19130034.jpeg?auto=compress\u0026cs=tinysrgb\u0026dpr=2\u0026h=650\u0026w=940",
             "large":"https://images.pexels.com/photos/19130034/pexels-photo-19130034.jpeg?auto=compress\u0026cs=tinysrgb\u0026h=650\u0026w=940",
             "medium":"https://images.pexels.com/photos/19130034/pexels-photo-19130034.jpeg?auto=compress\u0026cs=tinysrgb\u0026h=350",
             "small":"https://images.pexels.com/photos/19130034/pexels-photo-19130034.jpeg?auto=compress\u0026cs=tinysrgb\u0026h=130",
             "portrait":"https://images.pexels.com/photos/19130034/pexels-photo-19130034.jpeg?auto=compress\u0026cs=tinysrgb\u0026fit=crop\u0026h=1200\u0026w=800",
             "landscape":"https://images.pexels.com/photos/19130034/pexels-photo-19130034.jpeg?auto=compress\u0026cs=tinysrgb\u0026fit=crop\u0026h=627\u0026w=1200",
             "tiny":"https://images.pexels.com/photos/19130034/pexels-photo-19130034.jpeg?auto=compress\u0026cs=tinysrgb\u0026dpr=1\u0026fit=crop\u0026h=200\u0026w=280"
          },
          "liked":false,
          "alt":""
       },
       {
          "id":19121671,
          "width":3376,
          "height":6001,
          "url":"https://www.pexels.com/photo/aerial-view-of-sand-dunes-in-the-desert-19121671/",
          "photographer":"Dorjan Frrokaj",
          "photographer_url":"https://www.pexels.com/@dorjan-frrokaj-118638963",
          "photographer_id":118638963,
          "avg_color":"#C09F74",
          "src":{
             "original":"https://images.pexels.com/photos/19121671/pexels-photo-19121671.jpeg",
             "large2x":"https://images.pexels.com/photos/19121671/pexels-photo-19121671.jpeg?auto=compress\u0026cs=tinysrgb\u0026dpr=2\u0026h=650\u0026w=940",
             "large":"https://images.pexels.com/photos/19121671/pexels-photo-19121671.jpeg?auto=compress\u0026cs=tinysrgb\u0026h=650\u0026w=940",
             "medium":"https://images.pexels.com/photos/19121671/pexels-photo-19121671.jpeg?auto=compress\u0026cs=tinysrgb\u0026h=350",
             "small":"https://images.pexels.com/photos/19121671/pexels-photo-19121671.jpeg?auto=compress\u0026cs=tinysrgb\u0026h=130",
             "portrait":"https://images.pexels.com/photos/19121671/pexels-photo-19121671.jpeg?auto=compress\u0026cs=tinysrgb\u0026fit=crop\u0026h=1200\u0026w=800",
             "landscape":"https://images.pexels.com/photos/19121671/pexels-photo-19121671.jpeg?auto=compress\u0026cs=tinysrgb\u0026fit=crop\u0026h=627\u0026w=1200",
             "tiny":"https://images.pexels.com/photos/19121671/pexels-photo-19121671.jpeg?auto=compress\u0026cs=tinysrgb\u0026dpr=1\u0026fit=crop\u0026h=200\u0026w=280"
          },
          "liked":false,
          "alt":""
       },
       {
          "id":19074681,
          "width":3895,
          "height":4869,
          "url":"https://www.pexels.com/photo/young-woman-in-sports-clothing-standing-outside-and-smiling-19074681/",
          "photographer":"Ashlee Nicole",
          "photographer_url":"https://www.pexels.com/@ashlee-nicole-789284233",
          "photographer_id":789284233,
          "avg_color":"#C0A977",
          "src":{
             "original":"https://images.pexels.com/photos/19074681/pexels-photo-19074681.jpeg",
             "large2x":"https://images.pexels.com/photos/19074681/pexels-photo-19074681.jpeg?auto=compress\u0026cs=tinysrgb\u0026dpr=2\u0026h=650\u0026w=940",
             "large":"https://images.pexels.com/photos/19074681/pexels-photo-19074681.jpeg?auto=compress\u0026cs=tinysrgb\u0026h=650\u0026w=940",
             "medium":"https://images.pexels.com/photos/19074681/pexels-photo-19074681.jpeg?auto=compress\u0026cs=tinysrgb\u0026h=350",
             "small":"https://images.pexels.com/photos/19074681/pexels-photo-19074681.jpeg?auto=compress\u0026cs=tinysrgb\u0026h=130",
             "portrait":"https://images.pexels.com/photos/19074681/pexels-photo-19074681.jpeg?auto=compress\u0026cs=tinysrgb\u0026fit=crop\u0026h=1200\u0026w=800",
             "landscape":"https://images.pexels.com/photos/19074681/pexels-photo-19074681.jpeg?auto=compress\u0026cs=tinysrgb\u0026fit=crop\u0026h=627\u0026w=1200",
             "tiny":"https://images.pexels.com/photos/19074681/pexels-photo-19074681.jpeg?auto=compress\u0026cs=tinysrgb\u0026dpr=1\u0026fit=crop\u0026h=200\u0026w=280"
          },
          "liked":false,
          "alt":"Yellow Energy"
       },
       {
          "id":19071242,
          "width":3840,
          "height":5760,
          "url":"https://www.pexels.com/photo/view-of-the-lagoon-and-dunes-at-lencois-maranhenses-national-park-in-brazil-19071242/",
          "photographer":"Leo Castro",
          "photographer_url":"https://www.pexels.com/@leo-castro-789211412",
          "photographer_id":789211412,
          "avg_color":"#C5CBC7",
          "src":{
             "original":"https://images.pexels.com/photos/19071242/pexels-photo-19071242.jpeg",
             "large2x":"https://images.pexels.com/photos/19071242/pexels-photo-19071242.jpeg?auto=compress\u0026cs=tinysrgb\u0026dpr=2\u0026h=650\u0026w=940",
             "large":"https://images.pexels.com/photos/19071242/pexels-photo-19071242.jpeg?auto=compress\u0026cs=tinysrgb\u0026h=650\u0026w=940",
             "medium":"https://images.pexels.com/photos/19071242/pexels-photo-19071242.jpeg?auto=compress\u0026cs=tinysrgb\u0026h=350",
             "small":"https://images.pexels.com/photos/19071242/pexels-photo-19071242.jpeg?auto=compress\u0026cs=tinysrgb\u0026h=130",
             "portrait":"https://images.pexels.com/photos/19071242/pexels-photo-19071242.jpeg?auto=compress\u0026cs=tinysrgb\u0026fit=crop\u0026h=1200\u0026w=800",
             "landscape":"https://images.pexels.com/photos/19071242/pexels-photo-19071242.jpeg?auto=compress\u0026cs=tinysrgb\u0026fit=crop\u0026h=627\u0026w=1200",
             "tiny":"https://images.pexels.com/photos/19071242/pexels-photo-19071242.jpeg?auto=compress\u0026cs=tinysrgb\u0026dpr=1\u0026fit=crop\u0026h=200\u0026w=280"
          },
          "liked":false,
          "alt":"Curvas Lençóis Maranhenses "
       }
    ],
    "total_results":8000,
    "next_page":"https://api.pexels.com/v1/curated/?page=2\u0026per_page=15"
 }